…
The significance level can be specified using the alpha argument to inspect_na(). The default is alpha = 0.05.

Correlation

inspect_cor() for a single dataframe

inspect_cor() returns a tibble containing Pearsons correlation coefficient, confidence intervals and (p)-values for pairs of numeric columns . The function combines the functionality of cor() and cor.test() in a more convenient wrapper.

inspect_cor(storms)

## Column pair (42/45): hu_diameter & wind Column pair (43/45): ts_diameter &
## pressure Column pair (44/45): hu_diameter & pressure Column pair (45/45):
## hu_diameter & ts_diameter

## # A tibble: 45 x 6
##    col_1       col_2         corr  p_value  lower  upper
##    <chr>       <chr>        <dbl>    <dbl>  <dbl>  <dbl>
##  1 pressure    wind        -0.942 0.       -0.945 -0.940
##  2 hu_diameter pressure    -0.842 0.       -0.853 -0.831
##  3 hu_diameter wind         0.774 0.        0.758  0.788
##  4 hu_diameter ts_diameter  0.684 0.        0.663  0.704
##  5 ts_diameter pressure    -0.683 0.       -0.703 -0.663
##  6 ts_diameter wind         0.640 0.        0.617  0.662
##  7 ts_diameter lat          0.301 1.25e-73  0.266  0.335
##  8 day         month       -0.183 3.59e-76 -0.205 -0.161
##  9 hu_diameter lat          0.164 1.59e-22  0.127  0.201
## 10 ts_diameter month        0.139 1.67e-16  0.102  0.176
## #  with 35 more rows
…
## Column pair (40/45): pressure & wind Column pair (41/45): ts_diameter
## & wind Column pair (42/45): hu_diameter & wind Column pair (43/45):
## ts_diameter & pressure Column pair (44/45): hu_diameter & pressure Column
## pair (45/45): hu_diameter & ts_diameter Column pair (29/45): ts_diameter
## & hour Column pair (30/45): hu_diameter & hour Column pair (31/45): long
## & lat Column pair (32/45): wind & lat Column pair (33/45): pressure & lat
## Column pair (34/45): ts_diameter & lat Column pair (35/45): hu_diameter &
## lat Column pair (36/45): wind & long Column pair (37/45): pressure & long
## Column pair (38/45): ts_diameter & long Column pair (39/45): hu_diameter &
## long Column pair (40/45): pressure & wind Column pair (41/45): ts_diameter
## & wind Column pair (42/45): hu_diameter & wind Column pair (43/45):
## ts_diameter & pressure Column pair (44/45): hu_diameter & pressure Column
## pair (45/45): hu_diameter & ts_diameter

## # A tibble: 45 x 5
##    col_1       col_2       corr_1 corr_2 p_value
##    <chr>       <chr>        <dbl>  <dbl>   <dbl>
##  1 pressure    wind        -0.942 -0.942   0.929
##  2 hu_diameter pressure    -0.842 -0.842   1    
##  3 hu_diameter wind         0.774  0.774   1    
##  4 hu_diameter ts_diameter  0.684  0.684   1    
##  5 ts_diameter pressure    -0.683 -0.683   1    
##  6 ts_diameter wind         0.640  0.640   1    
##  7 ts_diameter lat          0.301  0.301   1    
##  8 day         month       -0.183 -0.178   0.729
##  9 hu_diameter lat          0.164  0.164   1    
## 10 ts_diameter month        0.139  0.139   1    
## #  with 35 more rows
…
The hist column is a list whose elements are tibbles each containing the relative frequencies of bins for each feature. These tibbles are used to generate the histograms when show_plot = TRUE. For example, the histogram for starwars$birth_year is

inspect_num(storms)$hist$pressure

## # A tibble: 31 x 2
##    value            prop
##    <chr>           <dbl>
##  1 [-Inf, 880) 0        
##  2 [880, 885)  0.0000999
##  3 [885, 890)  0.000200 
##  4 [890, 895)  0.000400 
##  5 [895, 900)  0.000300 
##  6 [900, 905)  0.000300 
##  7 [905, 910)  0.000699 
##  8 [910, 915)  0.000999 
##  9 [915, 920)  0.00130  
## 10 [920, 925)  0.00390  
## #  with 21 more rows
…
