…
    ## # A tibble: 3 x 10
    ##   col_name    min    q1 median  mean    q3   max    sd percent_na hist     
    ##   <chr>     <dbl> <dbl>  <dbl> <dbl> <dbl> <dbl> <dbl>      <dbl> <list>   
    ## 1 birth_ye…     8  35       52  87.6  72     896 155.       50.6  <tibble …
    ## 2 height       66 167      180 174.  191     264  34.8       6.90 <tibble …
    ## 3 mass         15  55.6     79  97.3  84.5  1358 169.       32.2  <tibble …

The `hist` column is a list whose elements are tibbles each containing a simple histogram with the relative frequency of counts for each feature. These tibbles are used to generate the histograms shown when `show_plot = TRUE`. For example, the histogram for `starwars$birth_year` is

``` r
report_numeric(starwars)$hist$birth_year
```

    ## # A tibble: 47 x 2
    ##    value        prop
    ##    <chr>       <dbl>
    ##  1 [-Inf, 0)  0     
    ##  2 [0, 20)    0.0930
    ##  3 [20, 40)   0.209 
    ##  4 [40, 60)   0.326 
    ##  5 [60, 80)   0.140 
    ##  6 [80, 100)  0.116 
    ##  7 [100, 120) 0.0465
    ##  8 [120, 140) 0     
    ##  9 [140, 160) 0     
    ## 10 [160, 180) 0     
    ## # … with 37 more rows
…
