Numeric column summaries and visualisations • inspectdf
…
The hist column is a list whose elements are tibbles
each containing the relative frequencies of bins for each feature. These
tibbles are used to generate the histograms when
show_plot = TRUE. For example, the histogram for
tdf$birth_year is

inspect_num(storms)$hist$pressure

## # A tibble: 29 × 2
##    value           prop
##    <chr>          <dbl>
##  1 [880, 885) 0.0000843
##  2 [885, 890) 0.000169 
##  3 [890, 895) 0.000422 
##  4 [895, 900) 0.000253 
##  5 [900, 905) 0.000506 
##  6 [905, 910) 0.000928 
##  7 [910, 915) 0.00110  
##  8 [915, 920) 0.00253  
##  9 [920, 925) 0.00312  
## 10 [925, 930) 0.00371  
## # … with 19 more rows
## # ℹ Use `print(n = ...)` to see more rows
…
