Summary and comparison of the most common levels in categorical columns — inspect_imb • inspectdf
…
# Grouped dataframe summary
tdf %>% group_by(gender) %>% inspect_imb()
#> # A tibble: 21 × 5
#> # Groups:   gender [3]
#>    gender    col_name   value       pcnt   cnt
#>    <chr>     <chr>      <chr>      <dbl> <int>
#>  1 feminine  sex        female     94.1     16
#>  2 feminine  species    Human      52.9      9
#>  3 feminine  hair_color brown      35.3      6
#>  4 feminine  skin_color light      35.3      6
#>  5 feminine  eye_color  blue       35.3      6
#>  6 feminine  homeworld  Naboo      17.6      3
#>  7 feminine  name       Adi Gallia  5.88     1
#>  8 masculine sex        male       90.9     60
#>  9 masculine hair_color none       47.0     31
#> 10 masculine species    Human      39.4     26
#> # … with 11 more rows
#> # ℹ Use `print(n = ...)` to see more rows
…
