Summary and comparison of the levels in categorical columns — inspect_cat • inspectdf
…
# Grouped dataframe summary
starwars %>% group_by(gender) %>% inspect_cat()
#> # A tibble: 30 x 6
#>    gender        col_name     cnt common   common_pcnt levels           
#>    <chr>         <chr>      <int> <chr>          <dbl> <list>           
#>  1 female        eye_color     13 brown          25.8  <tibble [13 × 3]>
#>  2 female        hair_color    10 none           46.8  <tibble [10 × 3]>
#>  3 female        homeworld     43 Naboo          11.3  <tibble [43 × 3]>
#>  4 female        name          62 Ackbar          1.61 <tibble [62 × 3]>
#>  5 female        skin_color    22 fair           22.6  <tibble [22 × 3]>
#>  6 female        species       32 Human          41.9  <tibble [32 × 3]>
#>  7 hermaphrodite eye_color      2 red            66.7  <tibble [2 × 3]> 
#>  8 hermaphrodite hair_color     1 NA            100    <tibble [1 × 3]> 
#>  9 hermaphrodite homeworld      2 Tatooine       66.7  <tibble [2 × 3]> 
#> 10 hermaphrodite name           3 C-3PO          33.3  <tibble [3 × 3]> 
#> # … with 20 more rows
…
