Summary and comparison of memory usage of dataframe columns — inspect_mem • inspectdf
…
# Grouped dataframe summary
starwars %>% group_by(gender) %>% inspect_mem()
#> # A tibble: 60 x 4
#>    gender col_name   size       pcnt
#>    <chr>  <chr>      <chr>     <dbl>
#>  1 female films      13.58 Kb  35.1 
#>  2 female starships  5.66 Kb   14.6 
#>  3 female name       4.42 Kb   11.4 
#>  4 female vehicles   4.27 Kb   11.0 
#>  5 female homeworld  2.98 Kb    7.71
#>  6 female species    2.34 Kb    6.03
#>  7 female skin_color 1.82 Kb    4.70
#>  8 female eye_color  1.26 Kb    3.25
#>  9 female hair_color 1.05 Kb    2.70
#> 10 female mass       544 bytes  1.37
#> # … with 50 more rows
…
