Summary and comparison of the rate of missingness across dataframe columns — inspect_na • inspectdf
…
# Grouped dataframe summary
tdf %>% group_by(gender) %>% inspect_na()
#> # A tibble: 39 × 4
#> # Groups:   gender [3]
#>    gender   col_name     cnt  pcnt
#>    <chr>    <chr>      <int> <dbl>
#>  1 feminine birth_year     9 52.9 
#>  2 feminine mass           8 47.1 
#>  3 feminine homeworld      2 11.8 
#>  4 feminine height         1  5.88
#>  5 feminine name           0  0   
#>  6 feminine hair_color     0  0   
#>  7 feminine skin_color     0  0   
#>  8 feminine eye_color      0  0   
#>  9 feminine sex            0  0   
#> 10 feminine species        0  0   
#> # … with 29 more rows
#> # ℹ Use `print(n = ...)` to see more rows
…
